\addvspace {10\p@ }
\addvspace {10\p@ }
\addvspace {10\p@ }
\addvspace {10\p@ }
\addvspace {10\p@ }
\contentsline {table}{\numberline {5.1}{\ignorespaces Parametry pracy g\IeC {\l }\IeC {\'o}wnej p\IeC {\k e}tli PLL mikrokontrolera\relax }}{29}{table.caption.17}
\contentsline {table}{\numberline {5.2}{\ignorespaces Aktualne mapowanie funkcji reakcji na zdarzenia zewn\IeC {\k e}trzne\relax }}{34}{table.caption.18}
\addvspace {10\p@ }
\addvspace {10\p@ }
\addvspace {10\p@ }
