\relax 
\providecommand\hyper@newdestlabel[2]{}
\providecommand\HyperFirstAtBeginDocument{\AtBeginDocument}
\HyperFirstAtBeginDocument{\ifx\hyper@anchor\@undefined
\global\let\oldcontentsline\contentsline
\gdef\contentsline#1#2#3#4{\oldcontentsline{#1}{#2}{#3}}
\global\let\oldnewlabel\newlabel
\gdef\newlabel#1#2{\newlabelxx{#1}#2}
\gdef\newlabelxx#1#2#3#4#5#6{\oldnewlabel{#1}{{#2}{#3}}}
\AtEndDocument{\ifx\hyper@anchor\@undefined
\let\contentsline\oldcontentsline
\let\newlabel\oldnewlabel
\fi}
\fi}
\global\let\hyper@last\relax 
\gdef\HyperFirstAtBeginDocument#1{#1}
\providecommand\HyField@AuxAddToFields[1]{}
\providecommand\HyField@AuxAddToCoFields[2]{}
\bibstyle{plabbrv}
\@writefile{toc}{\contentsline {chapter}{\numberline {1}Wst\IeC {\k e}p}{3}{chapter.1}}
\@writefile{lof}{\addvspace {10\p@ }}
\@writefile{lot}{\addvspace {10\p@ }}
\@writefile{toc}{\contentsline {section}{\numberline {1.1}Cel i zakres pracy}{3}{section.1.1}}
\@writefile{toc}{\contentsline {section}{\numberline {1.2}Wprowadzenie}{4}{section.1.2}}
\@writefile{toc}{\contentsline {chapter}{\numberline {2}Analogowy Interfejs}{5}{chapter.2}}
\@writefile{lof}{\addvspace {10\p@ }}
\@writefile{lot}{\addvspace {10\p@ }}
\@writefile{toc}{\contentsline {section}{\numberline {2.1}Zasada dzia\IeC {\l }ania}{5}{section.2.1}}
\@writefile{lof}{\contentsline {figure}{\numberline {2.1}{\ignorespaces Schemat blokowy analogowego interfejsu\relax }}{6}{figure.caption.2}}
\@writefile{toc}{\contentsline {section}{\numberline {2.2}Schemat elektroniczny}{6}{section.2.2}}
\@writefile{lof}{\contentsline {figure}{\numberline {2.2}{\ignorespaces Uk\IeC {\l }ad odpowiadaj\IeC {\k a}cy za realizacj\IeC {\k e} blok\IeC {\'o}w t\IeC {\l }umika 1:10, zabezpieczenia przeciwprzepi\IeC {\k e}ciowego oraz bloku programowalnego wzmocnienia\relax }}{7}{figure.caption.3}}
\@writefile{lof}{\contentsline {figure}{\numberline {2.3}{\ignorespaces Uk\IeC {\l }ad odpowiadaj\IeC {\k a}cy za realizacj\IeC {\k e} blok\IeC {\'o}w zabezpieczenia ADC oraz filtra dolnoprzepustowego\relax }}{7}{figure.caption.4}}
\@writefile{lof}{\contentsline {figure}{\numberline {2.4}{\ignorespaces Uk\IeC {\l }ad buforowanego napi\IeC {\k e}cia referencyjnego\relax }}{8}{figure.caption.5}}
\@writefile{lof}{\contentsline {figure}{\numberline {2.5}{\ignorespaces Konwerter dwukierunkowy 3.3V - 5V\relax }}{9}{figure.caption.6}}
\@writefile{toc}{\contentsline {section}{\numberline {2.3}Wygl\IeC {\k a}d PCB}{9}{section.2.3}}
\@writefile{lof}{\contentsline {figure}{\numberline {2.6}{\ignorespaces Obw\IeC {\'o}d drukowany modu\IeC {\l }u analogowego interfejsu\relax }}{9}{figure.caption.7}}
\@writefile{lof}{\contentsline {subfigure}{\numberline{((a))}{\ignorespaces {Strona g\IeC {\'o}rna}}}{9}{subfigure.6.1}}
\@writefile{lof}{\contentsline {subfigure}{\numberline{((b))}{\ignorespaces {Strona dolna}}}{9}{subfigure.6.2}}
\@writefile{toc}{\contentsline {chapter}{\numberline {3}Przetwornik analogowo cyfrowy}{11}{chapter.3}}
\@writefile{lof}{\addvspace {10\p@ }}
\@writefile{lot}{\addvspace {10\p@ }}
\@writefile{toc}{\contentsline {section}{\numberline {3.1}Zasada dzia\IeC {\l }ania}{11}{section.3.1}}
\@writefile{lof}{\contentsline {figure}{\numberline {3.1}{\ignorespaces Schemat blokowy modu\IeC {\l }u przetwornika analogowo-cyfrowego\relax }}{12}{figure.caption.8}}
\@writefile{toc}{\contentsline {section}{\numberline {3.2}Schemat elektroniczny}{12}{section.3.2}}
\@writefile{lof}{\contentsline {figure}{\numberline {3.2}{\ignorespaces Fragment schematu elektronicznego odpowiedzialnego za dzia\IeC {\l }anie ADC\relax }}{13}{figure.3.2}}
\@writefile{lof}{\contentsline {figure}{\numberline {3.3}{\ignorespaces Schemat elektroniczny programowalnego zegara\relax }}{14}{figure.caption.9}}
\@writefile{toc}{\contentsline {section}{\numberline {3.3}Wygl\IeC {\k a}d PCB}{14}{section.3.3}}
\@writefile{lof}{\contentsline {figure}{\numberline {3.4}{\ignorespaces Wygl\IeC {\k a}d obwodu drukowanego modu\IeC {\l }u ADC\relax }}{14}{figure.caption.10}}
\@writefile{lof}{\contentsline {subfigure}{\numberline{((a))}{\ignorespaces {Strona g\IeC {\'o}rna}}}{14}{subfigure.4.1}}
\@writefile{lof}{\contentsline {subfigure}{\numberline{((b))}{\ignorespaces {Strona dolna}}}{14}{subfigure.4.2}}
\@writefile{toc}{\contentsline {chapter}{\numberline {4}Bezpo\IeC {\'s}rednio programowalna macierz bramek}{15}{chapter.4}}
\@writefile{lof}{\addvspace {10\p@ }}
\@writefile{lot}{\addvspace {10\p@ }}
\@writefile{toc}{\contentsline {section}{\numberline {4.1}Zasada dzia\IeC {\l }ania}{15}{section.4.1}}
\@writefile{lof}{\contentsline {figure}{\numberline {4.1}{\ignorespaces Schemat blokowy modu\IeC {\l }u FPGA\relax }}{16}{figure.caption.11}}
\@writefile{toc}{\contentsline {section}{\numberline {4.2}Schemat elektroniczny}{17}{section.4.2}}
\@writefile{lof}{\contentsline {figure}{\numberline {4.2}{\ignorespaces Schemat elektroniczny modu\IeC {\l }u FPGA\relax }}{18}{figure.4.2}}
\@writefile{toc}{\contentsline {section}{\numberline {4.3}Konfiguracja FPGA}{19}{section.4.3}}
\@writefile{lof}{\contentsline {figure}{\numberline {4.3}{\ignorespaces Schemat maszyny stan\IeC {\'o}w uk\IeC {\l }adu FPGA\relax }}{19}{figure.caption.12}}
\@writefile{toc}{\contentsline {section}{\numberline {4.4}Wygl\IeC {\k a}d PCB}{24}{section.4.4}}
\@writefile{lof}{\contentsline {figure}{\numberline {4.4}{\ignorespaces Wygl\IeC {\k a}d obwodu drukowanego modu\IeC {\l }u FPGA\relax }}{24}{figure.caption.13}}
\@writefile{lof}{\contentsline {subfigure}{\numberline{((a))}{\ignorespaces {Strona g\IeC {\'o}rna}}}{24}{subfigure.4.1}}
\@writefile{lof}{\contentsline {subfigure}{\numberline{((b))}{\ignorespaces {Strona dolna}}}{24}{subfigure.4.2}}
\@writefile{toc}{\contentsline {chapter}{\numberline {5}P\IeC {\l }ytka steruj\IeC {\k a}ca}{25}{chapter.5}}
\@writefile{lof}{\addvspace {10\p@ }}
\@writefile{lot}{\addvspace {10\p@ }}
\@writefile{toc}{\contentsline {section}{\numberline {5.1}Zasada dzia\IeC {\l }ania}{25}{section.5.1}}
\@writefile{lof}{\contentsline {figure}{\numberline {5.1}{\ignorespaces Schemat blokowy dzia\IeC {\l }ania modu\IeC {\l }u sterowania\relax }}{27}{figure.caption.14}}
\@writefile{toc}{\contentsline {section}{\numberline {5.2}Schemat elektroniczny}{27}{section.5.2}}
\@writefile{lof}{\contentsline {figure}{\numberline {5.2}{\ignorespaces Schemat elektroniczny pod\IeC {\l }\IeC {\k a}czenia g\IeC {\l }\IeC {\'o}wnego mikrokontrolera\relax }}{28}{figure.caption.15}}
\@writefile{lof}{\contentsline {figure}{\numberline {5.3}{\ignorespaces Schemat elektroniczny pod\IeC {\l }\IeC {\k a}czenia SDRAM, LCD, karty SD\relax }}{29}{figure.caption.16}}
\@writefile{toc}{\contentsline {section}{\numberline {5.3}Inicjalizacja sprz\IeC {\k e}tu}{29}{section.5.3}}
\@writefile{toc}{\contentsline {subsection}{\numberline {5.3.1}Wewn\IeC {\k e}trzne zegary mikrokontrolera}{29}{subsection.5.3.1}}
\@writefile{lot}{\contentsline {table}{\numberline {5.1}{\ignorespaces Parametry pracy g\IeC {\l }\IeC {\'o}wnej p\IeC {\k e}tli PLL mikrokontrolera\relax }}{29}{table.caption.17}}
\@writefile{toc}{\contentsline {subsection}{\numberline {5.3.2}SDRAM}{29}{subsection.5.3.2}}
\@writefile{toc}{\contentsline {subsection}{\numberline {5.3.3}LTDC}{31}{subsection.5.3.3}}
\@writefile{toc}{\contentsline {subsection}{\numberline {5.3.4}Karta SD}{32}{subsection.5.3.4}}
\@writefile{toc}{\contentsline {subsection}{\numberline {5.3.5}System przerwa\IeC {\'n} zewn\IeC {\k e}trznych}{33}{subsection.5.3.5}}
\@writefile{lot}{\contentsline {table}{\numberline {5.2}{\ignorespaces Aktualne mapowanie funkcji reakcji na zdarzenia zewn\IeC {\k e}trzne\relax }}{34}{table.caption.18}}
\@writefile{toc}{\contentsline {subsection}{\numberline {5.3.6}Konwerter cyfrowo analogowy}{34}{subsection.5.3.6}}
\@writefile{toc}{\contentsline {subsection}{\numberline {5.3.7}Programowalne wzmacniacze operacyjne}{35}{subsection.5.3.7}}
\@writefile{toc}{\contentsline {subsection}{\numberline {5.3.8}Programowalny generator zegara}{36}{subsection.5.3.8}}
\@writefile{lof}{\contentsline {figure}{\numberline {5.4}{\ignorespaces Schemat blokowy sposobu generowania cz\IeC {\k e}stotliwo\IeC {\'s}ci zegarowej dla ADC\relax }}{36}{figure.caption.19}}
\@writefile{toc}{\contentsline {subsection}{\numberline {5.3.9}Przetwornik analogowo-cyforwy}{36}{subsection.5.3.9}}
\@writefile{toc}{\contentsline {subsection}{\numberline {5.3.10}Panel dotykowy}{37}{subsection.5.3.10}}
\@writefile{lof}{\contentsline {figure}{\numberline {5.5}{\ignorespaces Schemat blokowy dzia\IeC {\l }ania sterownika panelu dotykowego\relax }}{38}{figure.caption.20}}
\@writefile{toc}{\contentsline {section}{\numberline {5.4}Wygl\IeC {\k a}d PCB}{39}{section.5.4}}
\@writefile{lof}{\contentsline {figure}{\numberline {5.6}{\ignorespaces Wygl\IeC {\k a}d obwodu drukowanego modu\IeC {\l }u steruj\IeC {\k a}cego\relax }}{39}{figure.caption.21}}
\@writefile{lof}{\contentsline {subfigure}{\numberline{((a))}{\ignorespaces {Strona g\IeC {\'o}rna}}}{39}{subfigure.6.1}}
\@writefile{lof}{\contentsline {subfigure}{\numberline{((b))}{\ignorespaces {Strona dolna}}}{39}{subfigure.6.2}}
\@writefile{toc}{\contentsline {chapter}{\numberline {6}Panel zewn\IeC {\k e}trzny}{41}{chapter.6}}
\@writefile{lof}{\addvspace {10\p@ }}
\@writefile{lot}{\addvspace {10\p@ }}
\@writefile{toc}{\contentsline {section}{\numberline {6.1}Zasada dzia\IeC {\l }ania}{41}{section.6.1}}
\@writefile{lof}{\contentsline {figure}{\numberline {6.1}{\ignorespaces Schemat blokowy dzia\IeC {\l }ania panelu zewn\IeC {\k e}trznego\relax }}{42}{figure.caption.22}}
\@writefile{toc}{\contentsline {section}{\numberline {6.2}Schemat elektroniczny}{42}{section.6.2}}
\@writefile{lof}{\contentsline {figure}{\numberline {6.2}{\ignorespaces Schemat elektroniczny panelu zewn\IeC {\k e}trznego\relax }}{43}{figure.caption.23}}
\@writefile{toc}{\contentsline {section}{\numberline {6.3}Wygl\IeC {\k a}d PCB}{44}{section.6.3}}
\@writefile{lof}{\contentsline {figure}{\numberline {6.3}{\ignorespaces Obw\IeC {\'o}d drukowany panelu zewn\IeC {\k e}trznego\relax }}{44}{figure.caption.24}}
\@writefile{lof}{\contentsline {subfigure}{\numberline{((a))}{\ignorespaces {Strona g\IeC {\'o}rna}}}{44}{subfigure.3.1}}
\@writefile{lof}{\contentsline {subfigure}{\numberline{((b))}{\ignorespaces {Strona dolna}}}{44}{subfigure.3.2}}
\@writefile{toc}{\contentsline {chapter}{\numberline {7}Zasilanie}{45}{chapter.7}}
\@writefile{lof}{\addvspace {10\p@ }}
\@writefile{lot}{\addvspace {10\p@ }}
\@writefile{toc}{\contentsline {section}{\numberline {7.1}Schemat elektroniczny}{45}{section.7.1}}
\@writefile{lof}{\contentsline {figure}{\numberline {7.1}{\ignorespaces Schemat elektroniczny modu\IeC {\l }u zasilania\relax }}{45}{figure.caption.25}}
\@writefile{toc}{\contentsline {section}{\numberline {7.2}Wygl\IeC {\k a}d PCB}{46}{section.7.2}}
\@writefile{lof}{\contentsline {figure}{\numberline {7.2}{\ignorespaces Obw\IeC {\'o}d drukowany modu\IeC {\l }u zasilania\relax }}{46}{figure.caption.26}}
\@writefile{lof}{\contentsline {subfigure}{\numberline{((a))}{\ignorespaces {Strona g\IeC {\'o}rna}}}{46}{subfigure.2.1}}
\@writefile{lof}{\contentsline {subfigure}{\numberline{((b))}{\ignorespaces {Strona dolna}}}{46}{subfigure.2.2}}
\@writefile{toc}{\contentsline {chapter}{\numberline {8}System akwizycji i przedstawiania danych pomiarowych}{47}{chapter.8}}
\@writefile{lof}{\addvspace {10\p@ }}
\@writefile{lot}{\addvspace {10\p@ }}
\@writefile{toc}{\contentsline {section}{\numberline {8.1}Zasada dzia\IeC {\l }ania maszyny stan\IeC {\'o}w}{48}{section.8.1}}
\@writefile{lof}{\contentsline {figure}{\numberline {8.1}{\ignorespaces Przyk\IeC {\l }adowy wynik procedury przerysowania sceny wygenerowany przy pomocy funkcjonalno\IeC {\'s}ci zapisu zrzutu ekranu do pliku \relax }}{49}{figure.caption.27}}
\@writefile{lof}{\contentsline {figure}{\numberline {8.2}{\ignorespaces Uproszczony schemat dzia\IeC {\l }ania maszyny stan\IeC {\'o}w\relax }}{49}{figure.caption.28}}
\@writefile{toc}{\contentsline {section}{\numberline {8.2}Cz\IeC {\k e}\IeC {\'s}ci sk\IeC {\l }adowe systemu akwizycji}{50}{section.8.2}}
\@writefile{lot}{\contentsline {table}{\numberline {8.1}{\ignorespaces Por\IeC {\'o}wnanie obiektowo\IeC {\'s}ci w C i C++\relax }}{50}{table.caption.29}}
\@writefile{toc}{\contentsline {section}{\numberline {8.3}Drogi rozwoju}{51}{section.8.3}}
\@writefile{toc}{\contentsline {chapter}{\numberline {9}Podsumowanie}{53}{chapter.9}}
\@writefile{lof}{\addvspace {10\p@ }}
\@writefile{lot}{\addvspace {10\p@ }}
\@writefile{toc}{\contentsline {chapter}{Bibliografia}{53}{chapter.9}}
\bibcite{74ALVT162244 Datasheet}{1}
\bibcite{MAX12559 Datasheet}{2}
\bibcite{MAX12559 Evaluation Kits Datasheet}{3}
\bibcite{5P35021 Datasheet}{4}
\bibcite{STM32F103x8 STM32F103xB Datasheet - production data}{5}
\bibcite{STM32F10xx8 STM32F10xxB Errata sheet}{6}
\bibcite{STM32F745xx STM32F746xx Datasheet - production data}{7}
\bibcite{STM32F74xxx STM32F75xxx Errata sheet}{8}
\bibcite{RM0385 Reference manual}{9}
\bibcite{LM2776 Datasheet}{10}
\bibcite{MAX1720 Datasheet}{11}
\bibcite{SanDisk Secure Digital Card Product Manual}{12}
\bibcite{AS4C8M32S-7TCN Datasheet}{13}
\bibcite{HY101CTP LCD Datasheet}{14}
\bibcite{ft5x06 source code application and LCD Timing V2.0}{15}
\bibcite{FT5x06 DataSheet V4.0}{16}
\bibcite{MachXO Family Data Sheet}{17}
\bibcite{IS61WV102416BLL Datasheet}{18}
\bibcite{Si52111-A1/A2 Datasheet}{19}
\bibcite{MCP6S91/2/3 Datasheet}{20}
\bibcite{AD8137 Datasheet}{21}
\bibcite{BAT63 Datasheet}{22}
\bibcite{AZ4558C Datasheet}{23}
\bibcite{50-Ohm 2-GHz Oscilloscope Front-end Reference Design}{24}
\bibcite{RF-Sampling ADC Input Protection: Not Black Magic After All}{25}
\bibcite{Dokumentacja uGFX}{26}
